Project 1
…
pamclust <- bigdat1 %>% mutate(cluster=pam1$clustering)

library(plotly)
pamclust%>%plot_ly(x= ~Adult_Obese_perc, y = ~Food_Environment_Index, z = ~Health_care_costs, color= ~cluster,
type = "scatter3d", mode = "markers") %>%
layout(autosize = F, width = 900, height = 400)

pamclust %>% select(c(1,2,10))

## # A tibble: 254 x 3
##    County    Population cluster
##    <chr>          <dbl>   <int>
##  1 Anderson       57938       1
##  2 Andrews        16799       2
##  3 Angelina       87441       1
##  4 Aransas        24356       2
##  5 Archer          8681       2
##  6 Armstrong       1949       2
##  7 Atascosa       47093       2
##  8 Austin         28847       2
##  9 Bailey          7114       2
## 10 Bandera        20601       2
## # … with 244 more rows
…
